{
    "created": "2019-08-09T21:27:44.261850Z",
    "digest": "0ad1b69449eeea40f4ae06e77b9d9a0848184b5f82d8c888189834b287b49c53",
    "id": "45eb3c0a-2533-45d0-8d7e-ee929d640696",
    "inputs": [
        {
            "name": "inputs"
        }
    ],
    "outputs": [
        {
            "data": "steps.10.produce",
            "name": "output"
        }
    ],
    "schema": "https://metadata.datadrivendiscovery.org/schemas/v0/pipeline.json",
    "steps": [
        {
            "arguments": {
                "inputs": {
                    "data": "inputs.0",
                    "type": "CONTAINER"
                }
            },
            "outputs": [
                {
                    "id": "produce"
                }
            ],
            "primitive": {
                "digest": "0d46a2c5bc374e305682dc4f1c322518c07638153a8365034a513ea46960802b",
                "id": "4b42ce1e-9b98-4a25-b68e-fad13311eb65",
                "name": "Extract a DataFrame from a Dataset",
                "python_path": "d3m.primitives.data_transformation.dataset_to_dataframe.Common",
                "version": "0.3.0"
            },
            "type": "PRIMITIVE"
        },
        {
            "arguments": {
                "inputs": {
                    "data": "steps.0.produce",
                    "type": "CONTAINER"
                }
            },
            "hyperparams": {
                "semantic_types": {
                    "data": [
                        "https://metadata.datadrivendiscovery.org/types/Attribute"
                    ],
                    "type": "VALUE"
                }
            },
            "outputs": [
                {
                    "id": "produce"
                }
            ],
            "primitive": {
                "digest": "297a4943484bcd532650d5727e23b3d11ca702688d7b64dfb5df8bf1282eaa47",
                "id": "4503a4c6-42f7-45a1-a1d4-ed69699cf5e1",
                "name": "Extracts columns by semantic type",
                "python_path": "d3m.primitives.data_transformation.extract_columns_by_semantic_types.DataFrameCommon",
                "version": "0.2.0"
            },
            "type": "PRIMITIVE"
        },
        {
            "arguments": {
                "inputs": {
                    "data": "steps.1.produce",
                    "type": "CONTAINER"
                }
            },
            "hyperparams": {
                "columns": {
                    "data": [
                        1,
                        2,
                        3,
                        4,
                        5,
                        6,
                        7,
                        8,
                        9,
                        10,
                        11,
                        12,
                        13,
                        14,
                        15,
                        16,
                        17,
                        18,
                        19,
                        20,
                        21,
                        22,
                        23,
                        24,
                        25,
                        26,
                        27,
                        28,
                        29,
                        30,
                        31,
                        32,
                        33,
                        34,
                        35,
                        36,
                        37,
                        38,
                        39,
                        40,
                        41,
                        42,
                        43,
                        44,
                        45,
                        46,
                        47,
                        48,
                        49,
                        50,
                        51,
                        52,
                        53,
                        54,
                        55,
                        56,
                        57,
                        58,
                        59,
                        60,
                        61,
                        62,
                        63,
                        64,
                        65,
                        66,
                        67,
                        68,
                        69,
                        70,
                        71,
                        72,
                        73,
                        74,
                        75,
                        76,
                        77,
                        78,
                        79,
                        80,
                        81,
                        82,
                        83,
                        84,
                        85,
                        86,
                        87,
                        88,
                        89,
                        90,
                        91,
                        92,
                        93,
                        94,
                        95,
                        96,
                        97,
                        98,
                        99,
                        100,
                        101,
                        102,
                        103,
                        104,
                        105,
                        106,
                        107,
                        108,
                        109,
                        110,
                        111,
                        112,
                        113,
                        114,
                        115,
                        116,
                        117,
                        118,
                        119,
                        120,
                        121,
                        122,
                        123,
                        124,
                        125,
                        126,
                        127,
                        128,
                        129,
                        130,
                        131,
                        132,
                        133,
                        134,
                        135,
                        136,
                        137,
                        138,
                        139,
                        140,
                        141,
                        142,
                        143,
                        144,
                        145,
                        146,
                        147,
                        148,
                        149,
                        150,
                        151,
                        152,
                        153,
                        154,
                        155,
                        156,
                        157,
                        158,
                        159,
                        160,
                        161,
                        162,
                        163,
                        164,
                        165,
                        166,
                        167,
                        168,
                        169,
                        170,
                        171,
                        172,
                        173,
                        174,
                        175,
                        176,
                        177,
                        178,
                        179,
                        180,
                        181,
                        182,
                        183,
                        184,
                        185,
                        186,
                        187,
                        188,
                        189,
                        190,
                        191,
                        192,
                        193,
                        194,
                        195,
                        196,
                        197,
                        198,
                        199,
                        200
                    ],
                    "type": "VALUE"
                }
            },
            "outputs": [
                {
                    "id": "produce"
                }
            ],
            "primitive": {
                "digest": "5b521dd7ccac77a9b2c1de5d51a63141fc3f18642152a15e9751d9600336c2a4",
                "id": "81d7e261-e25b-4721-b091-a31cd46e99ae",
                "name": "Extracts columns",
                "python_path": "d3m.primitives.data_transformation.extract_columns.DataFrameCommon",
                "version": "0.1.0"
            },
            "type": "PRIMITIVE"
        },
        {
            "arguments": {
                "inputs": {
                    "data": "steps.2.produce",
                    "type": "CONTAINER"
                }
            },
            "outputs": [
                {
                    "id": "produce"
                }
            ],
            "primitive": {
                "digest": "312cacc014497dd674e34765f6eb54430e594c591e760da0383c87844753d2ce",
                "id": "d510cb7a-1782-4f51-b44c-58f0236e47c7",
                "name": "Parses strings into their types",
                "python_path": "d3m.primitives.data_transformation.column_parser.DataFrameCommon",
                "version": "0.5.0"
            },
            "type": "PRIMITIVE"
        },
        {
            "arguments": {
                "inputs": {
                    "data": "steps.3.produce",
                    "type": "CONTAINER"
                }
            },
            "outputs": [
                {
                    "id": "produce"
                }
            ],
            "primitive": {
                "digest": "4183552e52f20262bfbb3711300a39216d15749d204cc7b475cad55f8dda1cfd",
                "id": "d639947e-ece0-3a39-a666-e974acf4521d",
                "name": "sklearn.preprocessing.data.StandardScaler",
                "python_path": "d3m.primitives.data_preprocessing.standard_scaler.SKlearn",
                "version": "2019.4.4"
            },
            "type": "PRIMITIVE"
        },
        {
            "arguments": {
                "inputs": {
                    "data": "steps.4.produce",
                    "type": "CONTAINER"
                },
                "outputs": {
                    "data": "steps.4.produce",
                    "type": "CONTAINER"
                }
            },
            "hyperparams": {
                "alpha": {
                    "data": 0.1,
                    "type": "VALUE"
                },
                "beta": {
                    "data": 0.1,
                    "type": "VALUE"
                },
                "d": {
                    "data": 50,
                    "type": "VALUE"
                },
                "maxiter": {
                    "data": 2000,
                    "type": "VALUE"
                }
            },
            "outputs": [
                {
                    "id": "produce"
                }
            ],
            "primitive": {
                "digest": "200124f95be4cceb8cead9aa722dc58c2d09c3410c41dab75e2e7e729b55d8b1",
                "id": "e6ee30fa-af68-4bfe-9234-5ca7e7ac8e93",
                "name": "Matrix Completion via Sparse Factorization",
                "python_path": "d3m.primitives.collaborative_filtering.high_rank_imputer.Cornell",
                "version": "v0.1.1"
            },
            "type": "PRIMITIVE"
        },
        {
            "arguments": {
                "inputs": {
                    "data": "steps.0.produce",
                    "type": "CONTAINER"
                }
            },
            "hyperparams": {
                "semantic_types": {
                    "data": [
                        "https://metadata.datadrivendiscovery.org/types/TrueTarget"
                    ],
                    "type": "VALUE"
                }
            },
            "outputs": [
                {
                    "id": "produce"
                }
            ],
            "primitive": {
                "digest": "297a4943484bcd532650d5727e23b3d11ca702688d7b64dfb5df8bf1282eaa47",
                "id": "4503a4c6-42f7-45a1-a1d4-ed69699cf5e1",
                "name": "Extracts columns by semantic type",
                "python_path": "d3m.primitives.data_transformation.extract_columns_by_semantic_types.DataFrameCommon",
                "version": "0.2.0"
            },
            "type": "PRIMITIVE"
        },
        {
            "arguments": {
                "inputs": {
                    "data": "steps.6.produce",
                    "type": "CONTAINER"
                }
            },
            "outputs": [
                {
                    "id": "produce"
                }
            ],
            "primitive": {
                "digest": "98c24b0b4a8ed1f98d01dfd575144a13a019ea5c9996d17554db38b434a91876",
                "id": "26fc8fd3-f6b2-4c65-8afb-edb54ed2a3e4",
                "name": "Label encoder with an unseen category",
                "python_path": "d3m.primitives.data_preprocessing.label_encoder.DataFrameCommon",
                "version": "0.2.0"
            },
            "type": "PRIMITIVE"
        },
        {
            "arguments": {
                "inputs": {
                    "data": "steps.5.produce",
                    "type": "CONTAINER"
                },
                "outputs": {
                    "data": "steps.7.produce",
                    "type": "CONTAINER"
                }
            },
            "hyperparams": {
                "C": {
                    "data": 100,
                    "type": "VALUE"
                },
                "kernel": {
                    "data": "rbf",
                    "type": "VALUE"
                }
            },
            "outputs": [
                {
                    "id": "produce"
                }
            ],
            "primitive": {
                "digest": "7eedc5772884caaed449badc5b20095633f199fbc2e68c4939fa2f81eeaaf2b3",
                "id": "0ae7d42d-f765-3348-a28c-57d94880aa6a",
                "name": "sklearn.svm.classes.SVC",
                "python_path": "d3m.primitives.classification.svc.SKlearn",
                "version": "2019.4.4"
            },
            "type": "PRIMITIVE"
        },
        {
            "arguments": {
                "inputs": {
                    "data": "steps.8.produce",
                    "type": "CONTAINER"
                }
            },
            "hyperparams": {
                "encoder": {
                    "data": 7,
                    "type": "PRIMITIVE"
                }
            },
            "outputs": [
                {
                    "id": "produce"
                }
            ],
            "primitive": {
                "digest": "ab576215ebdfd7d0484687eba6312833227f9d4b867ceb77b1ec09b99c233a11",
                "id": "39ae30f7-39ed-40af-8679-5cf108499605",
                "name": "Label decoder for UnseenLabelEncoderPrimitive",
                "python_path": "d3m.primitives.data_preprocessing.label_decoder.DataFrameCommon",
                "version": "0.1.0"
            },
            "type": "PRIMITIVE"
        },
        {
            "arguments": {
                "inputs": {
                    "data": "steps.9.produce",
                    "type": "CONTAINER"
                },
                "reference": {
                    "data": "steps.0.produce",
                    "type": "CONTAINER"
                }
            },
            "outputs": [
                {
                    "id": "produce"
                }
            ],
            "primitive": {
                "digest": "cfb2d595652c4ae0d24e67d4cb8e4916c9f3c2753eaccc2935263d054b3682fa",
                "id": "8d38b340-f83f-4877-baaa-162f8e551736",
                "name": "Construct pipeline predictions output",
                "python_path": "d3m.primitives.data_transformation.construct_predictions.DataFrameCommon",
                "version": "0.3.0"
            },
            "type": "PRIMITIVE"
        }
    ]
}